...................
----------------------------------------------------------------------
Ran 19 tests in 1.409s

OK
Name             Stmts   Miss Branch BrPart  Cover   Missing
------------------------------------------------------------
Collatz.py          55      0     34      0   100%
TestCollatz.py      82      0      0      0   100%
------------------------------------------------------------
TOTAL              137      0     34      0   100%
