1 10 20
100 200 125
201 210 89
900 1000 174
1 1 1
5 6 9
999998 999999 259
1 200 125
999999 999999 259
1 999999 525
337012 260459 407
819639 234578 509
969841 432196 525
731375 529518 509
123924 907297 525
141704 73044 354
339892 159648 443
384922 122809 443
957384 653095 525
188961 842670 525
438048 241236 449
836161 362140 509
968842 437921 525
813443 94985 509
352003 570262 470
66288 808652 509
446165 125156 449
989678 103288 525
303385 240171 407
529564 499060 470
180182 985555 525
856202 677927 525
32864 788136 509
694952 941326 525
810810 627867 504
320635 354259 441
354698 964103 525
797479 470652 509
765881 263652 509
909020 348754 525
676434 56048 509
613793 819555 509
783026 689637 504
453625 729178 509
507663 846175 525
738606 342452 509
198709 6844 383
661345 147884 509
303687 624414 470
455070 224127 449
994088 177532 525
134561 75213 354
957001 594983 525
307782 345926 384
155954 435383 449
276547 697956 509
775957 184543 509
553230 960101 525
830054 463160 509
832929 198992 509
513025 191912 470
108596 270720 443
283224 766830 509
992361 875843 507
190058 315684 443
297243 976153 525
359558 374098 410
359186 44381 443
736125 168772 509
965952 519627 525
511559 618052 470
71370 286860 443
822639 362878 509
822717 154543 509
768291 491783 509
451072 446725 387
452473 908890 525
518546 643262 509
19247 936324 525
905306 547886 525
485869 526404 470
546787 594839 434
82107 419902 449
5694 799172 509
736759 641624 504
776890 222974 509
621042 904946 525
593113 514991 452
662284 286771 509
797496 670929 504
602941 133005 470
36311 65904 340
461088 158505 449
808453 931942 525
359862 977208 525
811572 173964 509
924324 803965 525
669831 206891 509
788664 816917 468
854239 722924 525
912923 296121 525
728328 314479 509
129154 335765 443
23742 856131 525
397259 697283 509
623399 387627 470
335914 973692 525
133944 821599 509
628676 109640 509
226347 270160 443
804820 463073 509
422467 818056 509
539040 125902 470
908653 647345 525
157150 725013 509
216628 751646 509
844641 2682 525
686050 351896 509
221626 635547 509
655080 442672 509
687626 236802 509
93164 689184 509
430147 606768 470
967542 422331 525
152935 27268 375
298121 327154 384
238291 897792 525
841359 355558 525
46858 594402 470
74577 671174 509
489591 277241 449
332119 941244 525
958310 899250 507
131332 431071 449
197132 299155 443
704694 322711 509
312976 463988 449
227153 417782 449
916977 724201 525
238046 623496 470
354409 69920 443
111417 19911 354
795381 22405 509
828046 240696 509
910578 964230 507
885908 589228 525
547886 972756 525
869574 116020 525
785808 601661 509
111998 761374 509
542612 739286 509
27722 259185 443
963067 384701 525
698079 990347 525
711929 98649 509
