1 10 20
100 200 125
201 210 89
900 1000 174
1 999999 525
1001 2000 182
100 1 119
5000 5 238
2001 3000 217
9999 1111 262
5 1 8
300 51 128
9999 8999 260
3500 4000 238
2 20002 279
43 600 144
7200 5 262
1600 1700 180
320 10000 262
189 200 120
509 320 144
38 170 122
999 1111 169
1234 5678 238
12 34 112
98 1 119
6700 7000 257
45 100 119
91 10 116
4 8 17
10 5 20
20 10 21
2003 2500 209
1998 2019 144
670 900 179
3 13 20
23 2 21
4480 5500 210
404 287 144
536 500 124
27 110 119
500 1000 179
1100 610 179
80 40 116
217 300 128
133 10 122
4 20 21
232 699 145
825 487 171
310 590 144
541 127 144
155 86 122
94 216 125
751 879 179
180 586 144
992 949 143
829 401 171
865 584 171
313 709 171
334 469 134
124 261 128
128 308 128
292 390 144
17 406 144
125 485 144
798 680 171
7 384 144
78657 8 351
8399 19931 279
26586 59950 340
23185 19950 269
581 389 142
1575 3456 217
8563 2977 262
3649 1780 217
5848 4774 236
1454 6518 262
5916 3629 238
1797 1941 175
2106 3282 217
372 2835 209
871 44 179
55 707 171
643 89 144
630 566 132
675 248 145
549 368 142
36 67 113
415 371 134
875 849 179
410 873 179
438 647 142
901 608 179
937 105 179
1800 900 182
30 800 171
2 4 8
43 49 105
66 25 113
63 73 116
77 87 111
81 57 116
80 64 116
70 83 116
78 100 119
6 3 9
32 51 110
82 22 116
18 77 116
12 93 116
61 57 33
8 99 119
39 465 144
580 6 144
69 429 144
12001 83200 351
924 9184 262
5 5555 238
3010 30101 308
33 3 112
